Feature Functions In Bayesian Regression · RxInfer.jl Examples
…
N = 40
Λ = I
X = range(-8, 8, length=N)

rng = StableRNG(42)

# Arbitrary non-linear function, which is hidden
f(x) = -((-x / 3)^3 - (-x / 2)^2 + x + 10) 

Y = rand(rng, MvNormalMeanCovariance(f.(X), Λ))

# Can be loaded from a file or a database
df = DataFrame(X = X, Y = Y)

40×2 DataFrame
 Row │ X         Y
     │ Float64   Float64
─────┼────────────────────
   1 │ -8.0      -5.63321
   2 │ -7.58974  -3.75472
   3 │ -7.17949  -2.26681
   4 │ -6.76923  -1.95387
   5 │ -6.35897  -2.92934
   6 │ -5.94872  -2.31714
   7 │ -5.53846  -4.10432
   8 │ -5.12821  -4.08565
  ⋮  │    ⋮         ⋮
  34 │  5.53846  -1.5234
  35 │  5.94872   0.98319
  36 │  6.35897   3.86051
  37 │  6.76923   4.48039
  38 │  7.17949   8.71697
  39 │  7.58974  12.703
  40 │  8.0      19.0635
           25 rows omitted
…
